{
  "development": {
    "username": "%USERNAME_DEV%",
    "password": "%PASSWORD_DEV%",
    "database": "%DATABASE_DEV%",
    "host": "%HOST_DEV%",
    "dialect": "mysql",
    "seederStorage": "sequelize"
  },
  "production": {
    "username": "%USERNAME_PROD%",
    "password": "%PASSWORD_PROD%",
    "database": "%DATABASE_PROD%",
    "host": "%HOST_PROD%",
    "dialect": "mysql",
    "seederStorage": "sequelize"
  }
}
